xof 0302txt 0064
template Header {
 <3D82AB43-62DA-11cf-AB39-0020AF71E433>
 WORD major;
 WORD minor;
 DWORD flags;
}

template Vector {
 <3D82AB5E-62DA-11cf-AB39-0020AF71E433>
 FLOAT x;
 FLOAT y;
 FLOAT z;
}

template Coords2d {
 <F6F23F44-7686-11cf-8F52-0040333594A3>
 FLOAT u;
 FLOAT v;
}

template Matrix4x4 {
 <F6F23F45-7686-11cf-8F52-0040333594A3>
 array FLOAT matrix[16];
}

template ColorRGBA {
 <35FF44E0-6C7C-11cf-8F52-0040333594A3>
 FLOAT red;
 FLOAT green;
 FLOAT blue;
 FLOAT alpha;
}

template ColorRGB {
 <D3E16E81-7835-11cf-8F52-0040333594A3>
 FLOAT red;
 FLOAT green;
 FLOAT blue;
}

template IndexedColor {
 <1630B820-7842-11cf-8F52-0040333594A3>
 DWORD index;
 ColorRGBA indexColor;
}

template Boolean {
 <4885AE61-78E8-11cf-8F52-0040333594A3>
 WORD truefalse;
}

template Boolean2d {
 <4885AE63-78E8-11cf-8F52-0040333594A3>
 Boolean u;
 Boolean v;
}

template MaterialWrap {
 <4885AE60-78E8-11cf-8F52-0040333594A3>
 Boolean u;
 Boolean v;
}

template TextureFilename {
 <A42790E1-7810-11cf-8F52-0040333594A3>
 STRING filename;
}

template Material {
 <3D82AB4D-62DA-11cf-AB39-0020AF71E433>
 ColorRGBA faceColor;
 FLOAT power;
 ColorRGB specularColor;
 ColorRGB emissiveColor;
 [...]
}

template MeshFace {
 <3D82AB5F-62DA-11cf-AB39-0020AF71E433>
 DWORD nFaceVertexIndices;
 array DWORD faceVertexIndices[nFaceVertexIndices];
}

template MeshFaceWraps {
 <4885AE62-78E8-11cf-8F52-0040333594A3>
 DWORD nFaceWrapValues;
 Boolean2d faceWrapValues;
}

template MeshTextureCoords {
 <F6F23F40-7686-11cf-8F52-0040333594A3>
 DWORD nTextureCoords;
 array Coords2d textureCoords[nTextureCoords];
}

template MeshMaterialList {
 <F6F23F42-7686-11cf-8F52-0040333594A3>
 DWORD nMaterials;
 DWORD nFaceIndexes;
 array DWORD faceIndexes[nFaceIndexes];
 [Material]
}

template MeshNormals {
 <F6F23F43-7686-11cf-8F52-0040333594A3>
 DWORD nNormals;
 array Vector normals[nNormals];
 DWORD nFaceNormals;
 array MeshFace faceNormals[nFaceNormals];
}

template MeshVertexColors {
 <1630B821-7842-11cf-8F52-0040333594A3>
 DWORD nVertexColors;
 array IndexedColor vertexColors[nVertexColors];
}

template Mesh {
 <3D82AB44-62DA-11cf-AB39-0020AF71E433>
 DWORD nVertices;
 array Vector vertices[nVertices];
 DWORD nFaces;
 array MeshFace faces[nFaces];
 [...]
}

Header{
1;
0;
1;
}

Mesh {
 64;
 -229.98810;404.07541;125.00391;,
 -155.66550;403.74429;125.00391;,
 -159.98970;472.37030;125.00391;,
 -229.46899;472.37030;125.00391;,
 -210.85280;160.68250;125.00391;,
 -171.03210;160.58591;125.00391;,
 124.53870;402.49600;125.00391;,
 196.99330;402.17319;125.00391;,
 198.80150;472.37030;125.00391;,
 135.93550;472.37030;125.00391;,
 124.99530;159.86760;125.00391;,
 190.74750;159.70810;125.00391;,
 -250.51820;160.77879;125.00391;,
 -250.51820;-527.62958;125.00391;,
 249.48180;-527.62958;125.00391;,
 249.48180;159.56560;125.00391;,
 -93.74720;403.46841;125.00391;,
 70.85980;402.73511;125.00391;,
 77.81530;472.37030;125.00391;,
 -93.45100;472.37030;125.00391;,
 -159.98970;472.37030;-127.74869;,
 -229.46899;472.37030;-127.74869;,
 -155.66550;403.74429;-127.74869;,
 -229.46899;472.37030;-127.74869;,
 -229.98810;404.07541;-127.74869;,
 -229.98810;404.07541;125.00391;,
 -229.46899;472.37030;125.00391;,
 -229.98810;404.07541;-127.74869;,
 -210.85280;160.68250;-127.74869;,
 -210.85280;160.68250;125.00391;,
 -171.03210;160.58591;-127.74869;,
 -210.85280;160.68250;-127.74869;,
 198.80150;472.37030;-127.74869;,
 135.93550;472.37030;-127.74869;,
 196.99330;402.17319;-127.74869;,
 198.80150;472.37030;-127.74869;,
 198.80150;472.37030;125.00391;,
 196.99330;402.17319;125.00391;,
 124.53870;402.49600;-127.74869;,
 196.99330;402.17319;-127.74869;,
 190.74750;159.70810;-127.74869;,
 190.74750;159.70810;125.00391;,
 190.74750;159.70810;-127.74869;,
 124.99530;159.86760;-127.74869;,
 249.48180;-527.62958;-127.74869;,
 249.48180;159.56560;-127.74869;,
 249.48180;159.56560;125.00391;,
 249.48180;-527.62958;125.00391;,
 -250.51820;-527.62958;-127.74869;,
 249.48180;-527.62958;-127.74869;,
 249.48180;-527.62958;125.00391;,
 -250.51820;-527.62958;125.00391;,
 -250.51820;160.77879;-127.74869;,
 -250.51820;-527.62958;-127.74869;,
 -250.51820;-527.62958;125.00391;,
 -250.51820;160.77879;125.00391;,
 -250.51820;160.77879;-127.74869;,
 249.48180;159.56560;-127.74869;,
 249.48180;-527.62958;-127.74869;,
 -250.51820;-527.62958;-127.74869;,
 77.81530;472.37030;-127.74869;,
 -93.45100;472.37030;-127.74869;,
 70.85980;402.73511;-127.74869;,
 -93.74720;403.46841;-127.74869;;
 
 32;
 4;0,1,2,3;,
 4;4,5,1,0;,
 4;6,7,8,9;,
 4;10,11,7,6;,
 8;11,10,5,4,12,13,14,15;,
 4;16,17,18,19;,
 6;6,17,16,1,5,10;,
 4;20,21,3,2;,
 4;22,20,2,1;,
 4;23,24,25,26;,
 4;21,20,22,27;,
 4;24,28,29,25;,
 4;27,22,30,31;,
 4;32,33,9,8;,
 4;34,35,36,37;,
 4;33,38,6,9;,
 4;33,32,39,38;,
 4;40,34,37,41;,
 4;38,39,42,43;,
 4;44,45,46,47;,
 4;48,49,50,51;,
 4;52,53,54,55;,
 4;31,56,12,4;,
 4;57,42,11,15;,
 8;57,58,59,56,31,30,43,42;,
 4;60,61,19,18;,
 4;62,60,18,17;,
 4;61,63,16,19;,
 4;61,60,62,63;,
 4;63,22,1,16;,
 4;38,62,17,6;,
 6;43,30,22,63,62,38;;
 
 MeshMaterialList {
  1;
  32;
  0,
  0,
  0,
  0,
  0,
  0,
  0,
  0,
  0,
  0,
  0,
  0,
  0,
  0,
  0,
  0,
  0,
  0,
  0,
  0,
  0,
  0,
  0,
  0,
  0,
  0,
  0,
  0,
  0,
  0,
  0,
  0;;
  Material {
   0.800000;0.800000;0.800000;1.000000;;
   5.000000;
   0.000000;0.000000;0.000000;;
   0.000000;0.000000;0.000000;;
   TextureFilename {
    "Billding01.png";
   }
  }
 }
 MeshNormals {
  27;
  0.000000;0.000000;1.000000;,
  0.000000;-0.000000;1.000000;,
  0.000000;-0.000000;1.000000;,
  0.000000;-1.000000;0.000000;,
  1.000000;0.000000;0.000000;,
  -1.000000;0.000000;0.000000;,
  0.999668;-0.025751;0.000000;,
  0.000000;1.000000;0.000000;,
  0.999668;-0.025751;0.000000;,
  0.998021;0.062886;0.000000;,
  -0.000000;-0.000000;-1.000000;,
  -0.999373;-0.035421;-0.000000;,
  -0.996924;-0.078377;-0.000000;,
  -0.986958;0.160977;0.000000;,
  0.995049;-0.099390;0.000000;,
  -0.999991;0.004299;0.000000;,
  -0.999971;0.007601;0.000000;,
  0.000000;0.000000;-1.000000;,
  -0.000000;0.000000;-1.000000;,
  -0.000000;-0.000000;-1.000000;,
  0.999668;-0.025750;0.000000;,
  0.002428;0.999997;0.000000;,
  0.002426;0.999997;0.000000;,
  -0.000000;-0.000000;-1.000000;,
  -0.000000;0.000000;-1.000000;,
  0.004455;0.999990;0.000000;,
  0.004454;0.999990;0.000000;;
  32;
  4;0,1,0,0;,
  4;0,1,1,0;,
  4;1,0,0,0;,
  4;1,0,0,1;,
  8;0,1,1,0,0,0,0,0;,
  4;2,2,0,0;,
  6;1,2,2,1,1,1;,
  4;7,7,7,7;,
  4;9,9,9,9;,
  4;16,11,11,16;,
  4;17,17,18,17;,
  4;11,12,12,11;,
  4;17,18,10,19;,
  4;7,7,7,7;,
  4;8,20,20,8;,
  4;13,13,13,13;,
  4;17,17,17,18;,
  4;6,8,8,6;,
  4;18,17,19,10;,
  4;4,4,4,4;,
  4;3,3,3,3;,
  4;5,5,5,5;,
  4;21,21,21,21;,
  4;22,22,22,22;,
  8;23,23,23,23,19,10,10,19;,
  4;7,7,7,7;,
  4;14,14,14,14;,
  4;15,15,15,15;,
  4;17,17,24,24;,
  4;25,25,25,25;,
  4;26,26,26,26;,
  6;10,10,18,24,24,18;;
 }
 MeshTextureCoords {
  64;
  0.041060;0.068290;,
  0.189710;0.068630;,
  0.181060;0.000000;,
  0.042100;0.000000;,
  0.079330;0.311690;,
  0.158970;0.311780;,
  0.750110;0.069870;,
  0.895020;0.070200;,
  0.898640;0.000000;,
  0.772910;0.000000;,
  0.751030;0.312500;,
  0.882530;0.312660;,
  0.000000;0.311590;,
  0.000000;1.000000;,
  1.000000;1.000000;,
  1.000000;0.312800;,
  0.313540;0.068900;,
  0.642760;0.069640;,
  0.656670;0.000000;,
  0.314130;0.000000;,
  0.181060;0.000000;,
  0.042100;0.000000;,
  0.189710;0.068630;,
  0.078969;0.016330;,
  0.078969;0.083161;,
  0.653274;0.083161;,
  0.653274;0.016330;,
  0.041060;0.068290;,
  0.078969;0.321336;,
  0.653274;0.321336;,
  0.158970;0.311780;,
  0.079330;0.311690;,
  0.898640;0.000000;,
  0.772910;0.000000;,
  0.078969;0.085022;,
  0.078969;0.016330;,
  0.653274;0.016330;,
  0.653274;0.085022;,
  0.750110;0.069870;,
  0.895020;0.070200;,
  0.078969;0.322290;,
  0.653274;0.322290;,
  0.882530;0.312660;,
  0.751030;0.312500;,
  0.078969;0.994893;,
  0.078969;0.322429;,
  0.653274;0.322429;,
  0.653274;0.994893;,
  0.259510;0.992550;,
  0.259510;0.992550;,
  0.698360;0.992550;,
  0.698360;0.992550;,
  0.078969;0.321242;,
  0.078969;0.994893;,
  0.653274;0.994893;,
  0.653274;0.321242;,
  0.000000;0.311590;,
  1.000000;0.312800;,
  1.000000;1.000000;,
  0.000000;1.000000;,
  0.656670;0.000000;,
  0.314130;0.000000;,
  0.642760;0.069640;,
  0.313540;0.068900;;
 }
}
