xof 0302txt 0064
template Header {
 <3D82AB43-62DA-11cf-AB39-0020AF71E433>
 WORD major;
 WORD minor;
 DWORD flags;
}

template Vector {
 <3D82AB5E-62DA-11cf-AB39-0020AF71E433>
 FLOAT x;
 FLOAT y;
 FLOAT z;
}

template Coords2d {
 <F6F23F44-7686-11cf-8F52-0040333594A3>
 FLOAT u;
 FLOAT v;
}

template Matrix4x4 {
 <F6F23F45-7686-11cf-8F52-0040333594A3>
 array FLOAT matrix[16];
}

template ColorRGBA {
 <35FF44E0-6C7C-11cf-8F52-0040333594A3>
 FLOAT red;
 FLOAT green;
 FLOAT blue;
 FLOAT alpha;
}

template ColorRGB {
 <D3E16E81-7835-11cf-8F52-0040333594A3>
 FLOAT red;
 FLOAT green;
 FLOAT blue;
}

template IndexedColor {
 <1630B820-7842-11cf-8F52-0040333594A3>
 DWORD index;
 ColorRGBA indexColor;
}

template Boolean {
 <4885AE61-78E8-11cf-8F52-0040333594A3>
 WORD truefalse;
}

template Boolean2d {
 <4885AE63-78E8-11cf-8F52-0040333594A3>
 Boolean u;
 Boolean v;
}

template MaterialWrap {
 <4885AE60-78E8-11cf-8F52-0040333594A3>
 Boolean u;
 Boolean v;
}

template TextureFilename {
 <A42790E1-7810-11cf-8F52-0040333594A3>
 STRING filename;
}

template Material {
 <3D82AB4D-62DA-11cf-AB39-0020AF71E433>
 ColorRGBA faceColor;
 FLOAT power;
 ColorRGB specularColor;
 ColorRGB emissiveColor;
 [...]
}

template MeshFace {
 <3D82AB5F-62DA-11cf-AB39-0020AF71E433>
 DWORD nFaceVertexIndices;
 array DWORD faceVertexIndices[nFaceVertexIndices];
}

template MeshFaceWraps {
 <4885AE62-78E8-11cf-8F52-0040333594A3>
 DWORD nFaceWrapValues;
 Boolean2d faceWrapValues;
}

template MeshTextureCoords {
 <F6F23F40-7686-11cf-8F52-0040333594A3>
 DWORD nTextureCoords;
 array Coords2d textureCoords[nTextureCoords];
}

template MeshMaterialList {
 <F6F23F42-7686-11cf-8F52-0040333594A3>
 DWORD nMaterials;
 DWORD nFaceIndexes;
 array DWORD faceIndexes[nFaceIndexes];
 [Material]
}

template MeshNormals {
 <F6F23F43-7686-11cf-8F52-0040333594A3>
 DWORD nNormals;
 array Vector normals[nNormals];
 DWORD nFaceNormals;
 array MeshFace faceNormals[nFaceNormals];
}

template MeshVertexColors {
 <1630B821-7842-11cf-8F52-0040333594A3>
 DWORD nVertexColors;
 array IndexedColor vertexColors[nVertexColors];
}

template Mesh {
 <3D82AB44-62DA-11cf-AB39-0020AF71E433>
 DWORD nVertices;
 array Vector vertices[nVertices];
 DWORD nFaces;
 array MeshFace faces[nFaces];
 [...]
}

Header{
1;
0;
1;
}

Mesh {
 94;
 -356.81781;264.63571;191.18291;,
 -361.37180;272.37030;191.18291;,
 -353.93430;272.37030;191.18291;,
 438.07458;272.37030;191.18291;,
 333.75961;272.37030;191.18291;,
 281.31580;179.31020;191.18291;,
 438.36630;179.31020;191.18291;,
 231.19000;90.36350;191.18291;,
 599.48181;90.36350;191.18291;,
 599.48181;179.31020;191.18291;,
 249.78970;123.36810;191.18291;,
 177.51131;123.10470;191.18291;,
 192.41510;90.36350;191.18291;,
 -600.51819;90.36350;191.18291;,
 -600.51819;-327.62970;191.18291;,
 599.48181;-327.62970;191.18291;,
 123.01280;90.36350;191.18291;,
 97.46050;120.13070;191.18291;,
 151.92650;179.31020;191.18291;,
 133.30670;179.31020;191.18291;,
 -388.62610;179.31020;191.18291;,
 -306.58081;179.31020;191.18291;,
 -553.44598;179.31020;191.18291;,
 -469.42651;179.31020;191.18291;,
 -509.84680;272.37030;191.18291;,
 -521.09021;272.37030;191.18291;,
 -600.51819;179.31020;191.18291;,
 46.66040;179.31020;191.18291;,
 333.75961;272.37030;-159.68980;,
 281.31580;179.31020;-159.68980;,
 281.31580;179.31020;191.18291;,
 333.75961;272.37030;191.18291;,
 438.07458;272.37030;-159.68980;,
 333.75961;272.37030;-159.68980;,
 438.36630;179.31020;-159.68980;,
 438.07458;272.37030;-159.68980;,
 438.07458;272.37030;191.18291;,
 438.36630;179.31020;191.18291;,
 438.36630;179.31020;-159.68980;,
 281.31580;179.31020;-159.68980;,
 249.78970;123.36810;-159.68980;,
 599.48181;179.31020;-159.68980;,
 599.48181;179.31020;191.18291;,
 599.48181;90.36350;-159.68980;,
 599.48181;90.36350;191.18291;,
 599.48181;179.31020;-159.68980;,
 599.48181;90.36350;-159.68980;,
 231.19000;90.36350;-159.68980;,
 177.51131;123.10470;-159.68980;,
 192.41510;90.36350;-159.68980;,
 599.48181;-327.62970;-159.68980;,
 599.48181;-327.62970;191.18291;,
 -600.51819;-327.62970;-159.68980;,
 -600.51819;-327.62970;191.18291;,
 -600.51819;90.36350;-159.68980;,
 -600.51819;90.36350;191.18291;,
 123.01280;90.36350;-159.68980;,
 599.48181;-327.62970;-159.68980;,
 -600.51819;-327.62970;-159.68980;,
 -600.51819;90.36350;-159.68980;,
 151.92650;179.31020;-159.68980;,
 133.30670;179.31020;-159.68980;,
 177.51131;123.10470;-159.68980;,
 151.92650;179.31020;-159.68980;,
 151.92650;179.31020;191.18291;,
 177.51131;123.10470;191.18291;,
 97.46050;120.13070;-159.68980;,
 -306.58081;179.31020;-159.68980;,
 -356.81781;264.63571;-159.68980;,
 -356.81781;264.63571;191.18291;,
 -306.58081;179.31020;191.18291;,
 -356.81781;264.63571;-159.68980;,
 -388.62610;179.31020;-159.68980;,
 -306.58081;179.31020;-159.68980;,
 -509.84680;272.37039;-159.68980;,
 -521.09021;272.37039;-159.68980;,
 -469.42651;179.31020;-159.68980;,
 -509.84680;272.37039;-159.68980;,
 -509.84680;272.37030;191.18291;,
 -469.42651;179.31020;191.18291;,
 -521.09021;272.37039;-159.68980;,
 -553.44598;179.31020;-159.68980;,
 -553.44598;179.31020;191.18291;,
 -521.09021;272.37030;191.18291;,
 -469.42651;179.31020;-159.68980;,
 -553.44598;179.31020;-159.68980;,
 46.66040;179.31020;-159.68980;,
 46.66040;179.31020;191.18291;,
 97.46050;120.13070;-159.68980;,
 97.46050;120.13070;191.18291;,
 -600.51819;179.31020;-159.68980;,
 -600.51819;179.31020;191.18291;,
 -600.51819;179.31020;-159.68980;,
 46.66040;179.31020;-159.68980;;
 
 40;
 3;0,1,2;,
 4;3,4,5,6;,
 6;7,8,9,6,5,10;,
 4;11,12,7,10;,
 7;13,14,15,8,7,12,16;,
 6;17,16,12,11,18,19;,
 3;20,21,0;,
 4;22,23,24,25;,
 9;26,13,16,17,27,21,20,23,22;,
 4;28,29,30,31;,
 4;32,33,4,3;,
 4;34,35,36,37;,
 4;38,39,33,32;,
 4;39,40,10,5;,
 4;41,34,37,42;,
 4;43,41,42,44;,
 6;40,39,38,45,46,47;,
 4;40,48,11,10;,
 4;40,47,49,48;,
 4;50,43,44,51;,
 4;52,50,51,53;,
 4;54,52,53,55;,
 7;56,49,47,46,57,58,59;,
 4;60,61,19,18;,
 4;62,63,64,65;,
 4;61,66,17,19;,
 6;61,60,48,49,56,66;,
 4;67,68,69,70;,
 4;71,72,20,0;,
 3;71,73,72;,
 4;74,75,25,24;,
 4;76,77,78,79;,
 4;80,81,82,83;,
 4;75,74,84,85;,
 4;72,84,23,20;,
 4;86,67,70,87;,
 4;88,86,87,89;,
 4;90,54,55,91;,
 4;85,92,26,22;,
 9;85,84,72,73,93,66,56,59,92;;
 
 MeshMaterialList {
  1;
  40;
  0,
  0,
  0,
  0,
  0,
  0,
  0,
  0,
  0,
  0,
  0,
  0,
  0,
  0,
  0,
  0,
  0,
  0,
  0,
  0,
  0,
  0,
  0,
  0,
  0,
  0,
  0,
  0,
  0,
  0,
  0,
  0,
  0,
  0,
  0,
  0,
  0,
  0,
  0,
  0;;
  Material {
   0.800000;0.800000;0.800000;1.000000;;
   5.000000;
   0.000000;0.000000;0.000000;;
   0.000000;0.000000;0.000000;;
   TextureFilename {
    "Billding02.png";
   }
  }
 }
 MeshNormals {
  33;
  0.000000;0.000000;1.000000;,
  -0.000000;0.000000;1.000000;,
  0.000000;0.000000;1.000000;,
  -0.000000;0.000000;1.000000;,
  -0.000000;0.000000;1.000000;,
  0.000000;0.000000;-1.000000;,
  0.000000;-1.000000;0.000000;,
  1.000000;0.000000;0.000000;,
  -1.000000;0.000000;0.000000;,
  0.000000;1.000000;0.000000;,
  -0.871185;0.490955;0.000000;,
  -0.871185;0.490955;0.000000;,
  -0.000000;0.000000;-1.000000;,
  0.999995;0.003135;0.000000;,
  0.000000;-0.000000;-1.000000;,
  -0.871185;0.490955;0.000000;,
  -0.003644;0.999993;0.000000;,
  0.417526;0.908665;0.000000;,
  -0.490872;0.871231;0.000000;,
  -0.855327;0.518089;0.000000;,
  0.861733;0.507362;0.000000;,
  -0.937009;0.349305;0.000000;,
  0.000000;1.000000;0.000000;,
  0.917216;0.398389;0.000000;,
  -0.944538;0.328403;0.000000;,
  -0.000000;0.000000;-1.000000;,
  0.000000;0.000000;-1.000000;,
  -0.000000;0.000000;-1.000000;,
  -0.000000;0.000000;-1.000000;,
  0.000000;-0.000000;-1.000000;,
  0.910142;0.414297;0.000000;,
  0.000000;-0.000000;-1.000000;,
  0.758782;0.651344;0.000000;;
  40;
  3;5,5,5;,
  4;0,0,0,0;,
  6;0,0,2,0,0,0;,
  4;0,0,0,0;,
  7;3,0,0,0,0,0,4;,
  6;3,4,0,0,0,0;,
  3;3,3,0;,
  4;3,3,0,0;,
  9;1,3,4,3,1,3,3,3,3;,
  4;10,11,11,10;,
  4;9,9,9,9;,
  4;13,13,13,13;,
  4;25,25,26,26;,
  4;11,15,15,11;,
  4;9,9,9,9;,
  4;7,7,7,7;,
  6;25,25,25,27,28,12;,
  4;16,16,16,16;,
  4;25,12,14,29;,
  4;7,7,7,7;,
  4;6,6,6,6;,
  4;8,8,8,8;,
  7;14,14,12,28,5,5,26;,
  4;9,18,18,9;,
  4;30,30,30,30;,
  4;18,19,19,18;,
  6;31,31,29,14,14,29;,
  4;20,20,20,20;,
  4;21,21,21,21;,
  3;26,26,26;,
  4;22,22,22,22;,
  4;23,23,23,23;,
  4;24,24,24,24;,
  4;26,26,26,26;,
  4;9,9,9,9;,
  4;17,9,9,17;,
  4;32,17,17,32;,
  4;8,8,8,8;,
  4;9,9,9,9;,
  9;26,26,26,26,26,29,14,26,26;;
 }
 MeshTextureCoords {
  94;
  0.203080;0.012890;,
  0.199290;0.000000;,
  0.205490;0.000000;,
  0.865490;0.000000;,
  0.778560;0.000000;,
  0.734860;0.155100;,
  0.865740;0.155100;,
  0.693090;0.303340;,
  1.000000;0.303340;,
  1.000000;0.155100;,
  0.708590;0.248340;,
  0.648360;0.248780;,
  0.660780;0.303340;,
  0.000000;0.303340;,
  0.000000;1.000000;,
  1.000000;1.000000;,
  0.602940;0.303340;,
  0.581650;0.253730;,
  0.627040;0.155100;,
  0.611520;0.155100;,
  0.176580;0.155100;,
  0.244950;0.155100;,
  0.039230;0.155100;,
  0.109240;0.155100;,
  0.075560;0.000000;,
  0.066190;0.000000;,
  0.000000;0.155100;,
  0.539320;0.155100;,
  0.426710;0.020830;,
  0.426710;0.174020;,
  0.678750;0.174020;,
  0.678750;0.020830;,
  0.865490;0.000000;,
  0.778560;0.000000;,
  0.426710;0.174020;,
  0.426710;0.020830;,
  0.678750;0.020830;,
  0.678750;0.174020;,
  0.865740;0.155100;,
  0.734860;0.155100;,
  0.708590;0.248340;,
  0.426710;0.174020;,
  0.678750;0.174020;,
  0.426710;0.320450;,
  0.678750;0.320450;,
  1.000000;0.155100;,
  1.000000;0.303340;,
  0.693090;0.303340;,
  0.648360;0.248780;,
  0.660780;0.303340;,
  0.426710;1.008560;,
  0.678750;1.008560;,
  0.426710;1.008560;,
  0.678750;1.008560;,
  0.426710;0.320450;,
  0.678750;0.320450;,
  0.602940;0.303340;,
  1.000000;1.000000;,
  0.000000;1.000000;,
  0.000000;0.303340;,
  0.627040;0.155100;,
  0.611520;0.155100;,
  0.426710;0.266550;,
  0.426710;0.174020;,
  0.678750;0.174020;,
  0.678750;0.266550;,
  0.581650;0.253730;,
  0.426710;0.174020;,
  0.426710;0.033560;,
  0.678750;0.033560;,
  0.678750;0.174020;,
  0.203080;0.012890;,
  0.176580;0.155100;,
  0.244950;0.155100;,
  0.075560;0.000000;,
  0.066190;0.000000;,
  0.426710;0.174020;,
  0.426710;0.020830;,
  0.678750;0.020830;,
  0.678750;0.174020;,
  0.426710;0.020830;,
  0.426710;0.174020;,
  0.678750;0.174020;,
  0.678750;0.020830;,
  0.109240;0.155100;,
  0.039230;0.155100;,
  0.426710;0.174020;,
  0.678750;0.174020;,
  0.426710;0.271450;,
  0.678750;0.271450;,
  0.426710;0.174020;,
  0.678750;0.174020;,
  0.000000;0.155100;,
  0.539320;0.155100;;
 }
}
